{
    "cmd": {
        "acknowledge": 255,
        "read_buffer": 163,
        "read_event" : 170,
        "read_flash" : 162,
        "sync"       : 161,
        "reset_I2C"  : 164,
        "get_n_flash_blocks" : 165,
        "ping"       : 160
    },
    "meas_to_show" : [
	"HIH_0_T",
	"HIH_1_T",
	"HIH_2_T",
	"HIH_3_T",
	"HIH_0_H",
	"HIH_1_H",
	"HIH_2_H",
	"HIH_3_H"
    ],
    "alias" : {
        "HIH_1_T" : "T Dry air",
        "HIH_2_T" : "T under mod",
        "HIH_3_T" : "T DC DC",
        "HIH_0_T" : "T opening",
        "HIH_1_H" : "H Dry air",
        "HIH_2_H" : "H under mod",
        "HIH_3_H" : "H DC DC",
        "HIH_0_H" : "H opening"

   },
    "meas_limits" : {
        "temp" : [0,30],
        "hum"  : [45,65],
        "acc"  : [-1,10]
    },
    "meas_limits_override" : {
	    "HIH_3_H" : [-1,15],
	    "HIH_2_H" : [-1,15],
	    "HIH_1_H" : [-1,15],
	    "HIH_0_H" : [-1,15]
    },

    "evt_def": [
                {
                    "name"     : "continuous",
                    "save_file": "continuous_data.csv",
                    "dump_file": "continuous_data.bin",
                    "size"     : 504,
                    "split"    : [
                                    ["status",    1],
                                    ["buffer",    7],
                                    ["timestamp",32],
                                    ["HIH_0_T"  ,11],
                                    ["HIH_0_H"  ,10],
                                    ["HIH_1_T"  ,11],
                                    ["HIH_1_H"  ,10],
                                    ["HIH_2_T"  ,11],
                                    ["HIH_2_H"  ,10],
                                    ["HIH_3_T"  ,11],
                                    ["HIH_3_H"  ,10],
                                    ["HIH_4_T"  ,11],
                                    ["HIH_4_H"  ,10],
                                    ["HIH_5_T"  ,11],
                                    ["HIH_5_H"  ,10],
                                    ["HIH_6_T"  ,11],
                                    ["HIH_6_H"  ,10],
                                    ["HIH_7_T"  ,11],
                                    ["HIH_7_H"  ,10],
                                    ["HIH_8_T"  ,11],
                                    ["HIH_8_H"  ,10],
                                    ["PT_100_0" ,11],
                                    ["PT_100_1" ,11],
                                    ["PT_100_2" ,11],
                                    ["PT_100_3" ,11],
                                    ["PT_100_4" ,11],
                                    ["PT_100_5" ,11],
                                    ["PT_100_6" ,11],
                                    ["PT_100_7" ,11],
                                    ["Die_T",    11],
                                    ["Rate_1",    16],
                                    ["Rate_2",    16],
                                    ["Rate_3",    16],
                                    ["Rate_4",    16]
                                ]
                }
    ],
    "log_file": "env_driver.log",
    "save_file" : "default.csv",
    "dump_file" : "test.bin",
    "port": "/dev/ttyACM*",
    "verbose": 4,
    "timeout": 2,
    "autosync": 5,
    "max_data": 3600,
    "flash_size" : 65535
}
